{"count":3989,"next":"https://www.mobilize.us/api/v1/organizations?page=3","previous":"https://www.mobilize.us/api/v1/organizations","data":[{"modified_date":1600715164,"slug":"seiu","is_independent":false,"id":116,"created_date":1513974471,"is_primary_campaign":false,"race_type":null,"event_feed_url":"https://www.mobilize.us/seiu/","name":"SEIU Members","state":"","district":"","org_type":"UNION","is_coordinated":true,"candidate_name":""},{"modified_date":1600715089,"slug":"texas-democratic-women","is_independent":false,"id":126,"created_date":1513974768,"is_primary_campaign":false,"race_type":null,"event_feed_url":"https://www.mobilize.us/texas-democratic-women/","name":"Texas Democratic Women","state":"TX","district":"","org_type":"CAMPAIGN","is_coordinated":true,"candidate_name":""},{"modified_date":1600715182,"slug":"tsta","is_independent":false,"id":137,"created_date":1513974907,"is_primary_campaign":false,"race_type":null,"event_feed_url":"https://www.mobilize.us/tsta/","name":"Texas State Teachers Association","state":"TX","district":"","org_type":"UNION","is_coordinated":true,"candidate_name":""},{"modified_date":1601329106,"slug":"julieoliverforcongress","is_independent":false,"id":152,"created_date":1515604602,"is_primary_campaign":false,"race_type":"CONGRESSIONAL","event_feed_url":"https://www.mobilize.us/julieoliverforcongress/","name":"Julie Oliver for Congress","state":"TX","district":"25","org_type":"CAMPAIGN","is_coordinated":true,"candidate_name":"Julie Oliver"},{"modified_date":1600715175,"slug":"estevez-fl-staterep","is_independent":false,"id":153,"created_date":1515696035,"is_primary_campaign":true,"race_type":null,"event_feed_url":"https://www.mobilize.us/estevez-fl-staterep/","name":"Javier Estevez for FL State Rep","state":"","district":"","org_type":"CAMPAIGN","is_coordinated":true,"candidate_name":""},{"modified_date":1600715167,"slug":"dpva","is_independent":false,"id":156,"created_date":1516662305,"is_primary_campaign":false,"race_type":null,"event_feed_url":"https://www.mobilize.us/dpva/","name":"Democratic Party of Virginia","state":"","district":"","org_type":"PARTY_COMMITTEE","is_coordinated":true,"candidate_name":""},{"modified_date":1601478320,"slug":"ppaf","is_independent":false,"id":157,"created_date":1516720901,"is_primary_campaign":false,"race_type":null,"event_feed_url":"https://www.mobilize.us/ppaf/","name":"Planned Parenthood Action Fund","state":"","district":"","org_type":"C4","is_coordinated":true,"candidate_name":""},{"modified_date":1600715096,"slug":"lambforcongress","is_independent":false,"id":158,"created_date":1516983917,"is_primary_campaign":false,"race_type":"CONGRESSIONAL","event_feed_url":"https://www.mobilize.us/lambforcongress/","name":"Conor Lamb for Congress","state":"PA","district":"17","org_type":"CAMPAIGN","is_coordinated":true,"candidate_name":"Conor Lamb"},{"modified_date":1601057120,"slug":"swingleft","is_independent":false,"id":159,"created_date":1516984264,"is_primary_campaign":false,"race_type":null,"event_feed_url":"https://www.mobilize.us/swingleft/","name":"Swing Left","state":"","district":"","org_type":"COORDINATED","is_coordinated":true,"candidate_name":""},{"modified_date":1601564563,"slug":"obama4congress","is_independent":false,"id":160,"created_date":1517244783,"is_primary_campaign":true,"race_type":null,"event_feed_url":"https://www.mobilize.us/obama4congress/","name":"Obama for Congress","state":"","district":"","org_type":"COORDINATED","is_coordinated":true,"candidate_name":""},{"modified_date":1600715131,"slug":"codebluewla","is_independent":false,"id":161,"created_date":1517247865,"is_primary_campaign":false,"race_type":null,"event_feed_url":"https://www.mobilize.us/codebluewla/","name":"Code Blue WLA","state":"","district":"","org_type":"COORDINATED","is_coordinated":true,"candidate_name":""},{"modified_date":1600715129,"slug":"time-for-action","is_independent":true,"id":162,"created_date":1517256375,"is_primary_campaign":false,"race_type":null,"event_feed_url":"https://www.mobilize.us/time-for-action/","name":"Time For Action","state":"","district":"","org_type":"INDEPENDENT","is_coordinated":false,"candidate_name":""},{"modified_date":1600715116,"slug":"hrc-supervols","is_independent":false,"id":163,"created_date":1517267855,"is_primary_campaign":false,"race_type":null,"event_feed_url":"https://www.mobilize.us/hrc-supervols/","name":"HRC Supervols","state":"","district":"","org_type":"COORDINATED","is_coordinated":true,"candidate_name":""},{"modified_date":1600715131,"slug":"aapivf","is_independent":true,"id":164,"created_date":1517433620,"is_primary_campaign":false,"race_type":null,"event_feed_url":"https://www.mobilize.us/aapivf/","name":"AAPI Victory Fund","state":"","district":"","org_type":"INDEPENDENT","is_coordinated":false,"candidate_name":""},{"modified_date":1600715151,"slug":"together-we-will","is_independent":true,"id":166,"created_date":1517956677,"is_primary_campaign":false,"race_type":null,"event_feed_url":"https://www.mobilize.us/together-we-will/","name":"Together We Will","state":"","district":"","org_type":"INDEPENDENT","is_coordinated":false,"candidate_name":""},{"modified_date":1600715131,"slug":"action-together-network","is_independent":true,"id":168,"created_date":1517956678,"is_primary_campaign":false,"race_type":null,"event_feed_url":"https://www.mobilize.us/action-together-network/","name":"Action Together Network","state":"","district":"","org_type":"INDEPENDENT","is_coordinated":false,"candidate_name":""},{"modified_date":1600715109,"slug":"hrc","is_independent":false,"id":173,"created_date":1517956678,"is_primary_campaign":false,"race_type":null,"event_feed_url":"https://www.mobilize.us/hrc/","name":"Human Rights Campaign","state":"","district":"","org_type":"C4","is_coordinated":true,"candidate_name":""},{"modified_date":1601392232,"slug":"nextgenva","is_independent":true,"id":175,"created_date":1517956678,"is_primary_campaign":false,"race_type":null,"event_feed_url":"https://www.mobilize.us/nextgenva/","name":"NextGen VA","state":"VA","district":"","org_type":"C4","is_coordinated":false,"candidate_name":""},{"modified_date":1600715139,"slug":"jesskingforcongress","is_independent":false,"id":177,"created_date":1517961417,"is_primary_campaign":false,"race_type":"CONGRESSIONAL","event_feed_url":"https://www.mobilize.us/jesskingforcongress/","name":"Jess King for Congress","state":"PA","district":"11","org_type":"CAMPAIGN","is_coordinated":true,"candidate_name":"Jess King"},{"modified_date":1600715160,"slug":"bluefuture","is_independent":false,"id":178,"created_date":1518035163,"is_primary_campaign":false,"race_type":null,"event_feed_url":"https://www.mobilize.us/bluefuture/","name":"Blue Future","state":"","district":"","org_type":"COORDINATED","is_coordinated":true,"candidate_name":""},{"modified_date":1601392569,"slug":"standupamerica","is_independent":true,"id":183,"created_date":1519324166,"is_primary_campaign":false,"race_type":null,"event_feed_url":"https://www.mobilize.us/standupamerica/","name":"Stand Up America","state":"","district":"","org_type":"C4","is_coordinated":false,"candidate_name":""},{"modified_date":1600715152,"slug":"reclaimidaho","is_independent":false,"id":185,"created_date":1519689388,"is_primary_campaign":false,"race_type":null,"event_feed_url":"https://www.mobilize.us/reclaimidaho/","name":"Reclaim Idaho","state":"ID","district":"","org_type":"C4","is_coordinated":true,"candidate_name":""},{"modified_date":1600715183,"slug":"elissaforcongress","is_independent":false,"id":186,"created_date":1519925164,"is_primary_campaign":false,"race_type":"CONGRESSIONAL","event_feed_url":"https://www.mobilize.us/elissaforcongress/","name":"Elissa Slotkin for Congress","state":"MI","district":"8","org_type":"CAMPAIGN","is_coordinated":true,"candidate_name":"Elissa Slotkin"},{"modified_date":1600715165,"slug":"ohdems","is_independent":false,"id":187,"created_date":1519939100,"is_primary_campaign":false,"race_type":null,"event_feed_url":"https://www.mobilize.us/ohdems/","name":"Ohio Democratic Party","state":"OH","district":"","org_type":"PARTY_COMMITTEE","is_coordinated":true,"candidate_name":""},{"modified_date":1600715094,"slug":"networknova","is_independent":false,"id":188,"created_date":1520014124,"is_primary_campaign":false,"race_type":null,"event_feed_url":"https://www.mobilize.us/networknova/","name":"Network NoVA","state":"","district":"","org_type":"COORDINATED","is_coordinated":true,"candidate_name":""}],"metadata":{"url_name":"public_organizations","build_commit":"e1b1c2e948f0c78571b3eee294d7946812b0ce1b","page_title":null},"is_custom_domain":false}
